{
  "name": "cmaisonneuve-koha",
  "version": "0.9.1",
  "author": "cmaisonneuve",
  "summary": "Installs, configures, and manages Koha",
  "license": "GPL-3.0",
  "source": "https://gitlab.com/cmaisonneuve/puppet-koha",
  "project_page": "https://gitlab.com/cmaisonneuve/puppet-koha",
  "issues_url": "https://gitlab.com/cmaisonneuve/puppet-koha/issues",
  "dependencies": [
    { "name":"puppetlabs/stdlib","version_requirement":">= 4.13.1 < 5.0.0" }
  ],
  "data_provider": "hiera",
  "requirements": [
    {
      "name": "puppet",
      "version_requirement": ">= 4.7.0 < 6.0.0"
    }
  ],
  "operatingsystem_support": [
    {
      "operatingsystem": "Debian",
      "operatingsystemrelease": [
        "8",
		"9"
      ]
    },
    {
      "operatingsystem": "Ubuntu",
      "operatingsystemrelease": [
		"18.05"
      ]
    }
  ],
  "description": "This module manages Koha deployments on Debian/Ubuntu."
}
